 Version BETA-3.1
    # Introduce compatibility for higher GCC
    # CRC switch
    # Westwood TCP
    # Update ZZMoove
    # Add faux sound control v3.6
       
 Version BETA-3
    #Encryption fix [xDoge ROMs]
    
Version BETA-2
    # New UI print
    # Added SMP hotplug
    # Added Zzmove governer
    # Added Faux Sound control
    
Version BETA-1 
    # upstream kernel to 3.18.137
    # Latest CAF upstream tag merged
    
    