{
   "name": "Nano Kernel V4",
   "url": "https://master.dl.sourceforge.net/project/nano-releases/AOSP/Nano_Kernel-rosy-43201911-1004-AOSP-v4.zip",
   "miui_url": "https://master.dl.sourceforge.net/project/nano-releases/MIUI/Nano_Kernel-rosy-50201911-1004-MIUI-v4.zip",
   "Ver": "4"
}